…
The three new columns are **instant**, **hours** 
and **minutes**. So that the new data frame, looks like this:


```r
print(activity)
```

```
## # A tibble: 17,568 x 6
##    instant interval date       hours minutes steps
##      <dbl>    <int> <date>     <dbl>   <dbl> <int>
##  1       0        0 2012-10-01     0       0    NA
##  2       1        5 2012-10-01     0       5    NA
##  3       2       10 2012-10-01     0      10    NA
##  4       3       15 2012-10-01     0      15    NA
##  5       4       20 2012-10-01     0      20    NA
##  6       5       25 2012-10-01     0      25    NA
##  7       6       30 2012-10-01     0      30    NA
##  8       7       35 2012-10-01     0      35    NA
##  9       8       40 2012-10-01     0      40    NA
## 10       9       45 2012-10-01     0      45    NA
## # ... with 17,558 more rows
```
…
So that the final data frame we are going to work with, looks like this:


```r
print(activity)
```

```
## # A tibble: 17,568 x 5
##    instant interval date       time     steps
##      <dbl>    <int> <date>     <times>  <int>
##  1       0        0 2012-10-01 00:00:00    NA
##  2       1        5 2012-10-01 00:05:00    NA
##  3       2       10 2012-10-01 00:10:00    NA
##  4       3       15 2012-10-01 00:15:00    NA
##  5       4       20 2012-10-01 00:20:00    NA
##  6       5       25 2012-10-01 00:25:00    NA
##  7       6       30 2012-10-01 00:30:00    NA
##  8       7       35 2012-10-01 00:35:00    NA
##  9       8       40 2012-10-01 00:40:00    NA
## 10       9       45 2012-10-01 00:45:00    NA
## # ... with 17,558 more rows
```

## What is mean total number of steps taken per day?

The total number of steps per day can be calculated simply using the following 
piece of code. The result is given as a data frame of two columns containing 
respectively the date and the corresponding total number of steps for each day.

```r
dailyActivity <- activity %>% group_by(date) %>%
                summarise(total_steps = sum(steps, na.rm = TRUE))
print(dailyActivity)
```

```
## # A tibble: 61 x 2
##    date       total_steps
##    <date>           <int>
##  1 2012-10-01           0
##  2 2012-10-02         126
##  3 2012-10-03       11352
##  4 2012-10-04       12116
##  5 2012-10-05       13294
##  6 2012-10-06       15420
##  7 2012-10-07       11015
##  8 2012-10-08           0
##  9 2012-10-09       12811
## 10 2012-10-10        9900
## # ... with 51 more rows
```
…
```r
avgActivity <- activity %>% group_by(interval) %>%
                summarise(avg_steps = mean(steps, na.rm = TRUE))
maxInterval <- avgActivity$interval[avgActivity$avg_steps == max(avgActivity$avg_steps)]
maxTime <- c(as.character(unique(activity$time[activity$interval == maxInterval - 5])),
             as.character(unique(activity$time[activity$interval == maxInterval]))
                )
print(avgActivity)
```

```
## # A tibble: 288 x 2
##    interval avg_steps
##       <int>     <dbl>
##  1        0    1.72  
##  2        5    0.340 
##  3       10    0.132 
##  4       15    0.151 
##  5       20    0.0755
##  6       25    2.09  
##  7       30    0.528 
##  8       35    0.868 
##  9       40    0     
## 10       45    1.47  
## # ... with 278 more rows
```
…
```r
newActivity <- activity
for (i in 1:length(newActivity$steps)){
        
        if(is.na(newActivity$steps[i])){
                newActivity$steps[i] <- avgActivity$avg_steps[avgActivity$interval == newActivity$interval[i]]
        }
}
print(newActivity)
```

```
## # A tibble: 17,568 x 5
##    instant interval date       time      steps
##      <dbl>    <int> <date>     <times>   <dbl>
##  1       0        0 2012-10-01 00:00:00 1.72  
##  2       1        5 2012-10-01 00:05:00 0.340 
##  3       2       10 2012-10-01 00:10:00 0.132 
##  4       3       15 2012-10-01 00:15:00 0.151 
##  5       4       20 2012-10-01 00:20:00 0.0755
##  6       5       25 2012-10-01 00:25:00 2.09  
##  7       6       30 2012-10-01 00:30:00 0.528 
##  8       7       35 2012-10-01 00:35:00 0.868 
##  9       8       40 2012-10-01 00:40:00 0     
## 10       9       45 2012-10-01 00:45:00 1.47  
## # ... with 17,558 more rows
```
…
The total number of steps per day in the new data set can be calculated again as
follows: 

```r
newDailyActivity <- newActivity %>% group_by(date) %>%
                summarise(total_steps = sum(steps, na.rm = TRUE))
print(newDailyActivity)
```

```
## # A tibble: 61 x 2
##    date       total_steps
##    <date>           <dbl>
##  1 2012-10-01      10766.
##  2 2012-10-02        126 
##  3 2012-10-03      11352 
##  4 2012-10-04      12116 
##  5 2012-10-05      13294 
##  6 2012-10-06      15420 
##  7 2012-10-07      11015 
##  8 2012-10-08      10766.
##  9 2012-10-09      12811 
## 10 2012-10-10       9900 
## # ... with 51 more rows
```
…
```r
diffActivity <- newActivity %>% mutate(day = as.factor(dayLevel)) %>% 
                group_by(interval, day) %>%
                summarise(avg_steps = mean(steps))
```

this data frame looks like this:


```r
print(diffActivity)
```

```
## # A tibble: 576 x 3
## # Groups:   interval [288]
##    interval day     avg_steps
##       <int> <fct>       <dbl>
##  1        0 weekday   2.25   
##  2        0 weekend   0.215  
##  3        5 weekday   0.445  
##  4        5 weekend   0.0425 
##  5       10 weekday   0.173  
##  6       10 weekend   0.0165 
##  7       15 weekday   0.198  
##  8       15 weekend   0.0189 
##  9       20 weekday   0.0990 
## 10       20 weekend   0.00943
## # ... with 566 more rows
```
…
